<svg width="24" height="24" viewBox="0 0 24 24" fill="none" xmlns="http://www.w3.org/2000/svg">
<path d="M14.81 6.49799C14.9349 6.37294 15.005 6.20339 15.0049 6.02664C15.0049 5.84988 14.9345 5.68041 14.8095 5.55549C14.6844 5.43057 14.5149 5.36045 14.3381 5.36054C14.1614 5.36064 13.9919 5.43094 13.867 5.55599L8.513 10.91C8.45113 10.9718 8.40206 11.0453 8.36858 11.1261C8.3351 11.2069 8.31786 11.2935 8.31786 11.381C8.31786 11.4685 8.3351 11.5551 8.36858 11.6359C8.40206 11.7167 8.45113 11.7901 8.513 11.852L13.867 17.205C13.9288 17.2668 14.0023 17.3159 14.0831 17.3494C14.1639 17.3829 14.2505 17.4001 14.338 17.4001C14.4255 17.4001 14.5121 17.3829 14.5929 17.3494C14.6737 17.3159 14.7471 17.2668 14.809 17.205C14.8708 17.1431 14.9199 17.0697 14.9534 16.9889C14.9869 16.9081 15.0041 16.8215 15.0041 16.734C15.0041 16.6465 14.9869 16.5599 14.9534 16.4791C14.9199 16.3983 14.8708 16.3248 14.809 16.263L9.926 11.381L14.809 6.49799L14.81 6.49799Z" fill="black"/>
</svg>
